<?xml version="1.0" ?><!DOCTYPE svg  PUBLIC '-//W3C//DTD SVG 1.1//EN'
    'http://www.w3.org/Graphics/SVG/1.1/DTD/svg11.dtd'>
<svg height="128px" id="Layer_1" style="enable-background:new 0 0 128 128;" version="1.1" viewBox="0 0 128 128"
     width="128px" xml:space="preserve" xmlns="http://www.w3.org/2000/svg" xmlns:xlink="http://www.w3.org/1999/xlink"><g>
    <line style="fill:none;stroke:#000000;stroke-width:12;stroke-linecap:square;stroke-miterlimit:10;" x1="87.5" x2="40.5" y1="111" y2="64"/>
    <line style="fill:none;stroke:#000000;stroke-width:12;stroke-linecap:square;stroke-miterlimit:10;" x1="40.5" x2="87.5"
    y1="64" y2="17"/></g></svg>
